0.5050292088437357,-0.5052841945316521,0.6404226504432821,0
0.5041960046861216,-0.5214267749264444,0.36159505490948474,0
0.5521600018052055,-0.46211676147483033,-0.7037352358069926,0
0.4493831411581579,-0.5249309785014941,0.0413259793472436,0
0.40699876901444665,-0.5087516665573019,-1.2459109472530652,0
0.47070930581186193,-0.5217703593142924,-0.31630015636915454,0
0.5164652214549653,-0.4582994652222929,-0.12853466294403426,0
0.5546585388219875,-0.5266077869394645,0.3515100700930197,0
0.5361388072660723,-0.496239508089565,-0.7434992493538084,0
0.4631309849496632,-0.5183090330266935,0.2201951234700494,0
0.4596152726584506,-0.5083670229948685,-0.15922500991447772,0
0.5216338233874324,-0.49141363509974634,0.3553727090399214,0
0.47384685562326645,-0.5051845453477107,0.7839754700613295,0
0.5597372458088304,-0.5503626212841648,1.5139237747390626,0
0.5538350169512922,-0.4687475439719829,0.2644556303293035,0
0.48744308741854286,-0.44167917265852163,1.9602583164499647,0
0.572065394794645,-0.4473958494106252,0.357380410658956,0
0.45166725470871316,-0.5001781653248033,0.6564749350763358,0
0.4484655414500178,-0.48419511759271966,0.42986369482223,0
0.5278417089585148,-0.5473647186702876,-0.6617025720390349,0
0.48254259011427114,-0.5467920763109145,1.739367877130134,0
0.4801635708623139,-0.4868412148215919,-0.258572545473924,0
0.5633389151520849,-0.4471855605167264,0.6333526228249152,0
0.41185960477413397,-0.49791884102960454,0.6836861907765345,0
0.5401584630336868,-0.524716281788304,1.8220113633283233,0
0.44718276119946826,-0.5264611208726088,0.9350499881140221,0
0.5019621845530124,-0.4199042966541898,0.18851919251246557,0
0.47467223639231093,-0.5151025402093123,-1.0911461176191954,0
0.4488927933445357,-0.47478354036927073,0.5811658124128057,0
0.5517823527776446,-0.5301842316503973,1.689107452443673,0
0.48850449168765336,-0.4370236688462165,-0.4327858471825968,0
0.470580668306309,-0.49000858513765333,1.0314530848694723,0
0.5064403830686138,-0.5234211529649335,-1.341219714076669,0
0.4439391914033029,-0.4798926860050054,0.989713033285805,0
0.4934282162949884,-0.5429745943291374,0.8730421526217066,0
0.44878424221141705,-0.5285227238023709,0.6210178535400985,0
0.4099943530570163,-0.48454521609734774,-0.5816408364095031,0
0.5043711878991125,-0.5030280610488329,0.20211439504395987,0
0.5277668774682803,-0.5303347900359364,1.4209820223119163,0
0.5290437515579106,-0.4662506935078693,1.1648639811110282,0
0.5315035288682348,-0.46623685277685634,0.07559361074288512,0
0.4429290459604107,-0.5054018040014806,-0.7695146401767057,0
0.44309032925938346,-0.4896618883634805,-0.5685494541476426,0
0.45880782247954144,-0.5417200432028626,0.26841707970891465,0
0.5143468779668138,-0.4471017012093267,-0.013914668524093734,0
0.5416735903685129,-0.4439094069290991,1.1501656361496921,0
0.405387843748921,-0.45085265123186313,0.33962000824864264,0
0.5169508541141339,-0.48515090329054966,0.3827571602707609,0
0.5127765688100953,-0.5143565323415448,-1.9016352983759945,0
0.49564341088370306,-0.5321492739408271,1.0801634125378852,0
0.4884493397601849,-0.4966609857557196,-0.8496059556101431,0
0.47957510128407493,-0.5004613224674634,-1.4853751842635452,0
0.5120274045717842,-0.50424289013791,-1.1857198050052338,0
0.40407068538408913,-0.4794779146447878,-0.29758403894333035,0
0.4787996634712737,-0.5094461851941177,1.816475940881144,0
0.49800796123761426,-0.4965352294804583,-1.487072869675398,0
0.565893562654244,-0.46330048066222823,1.066934867005179,0
0.5019069092484671,-0.46333380844701616,0.37094683509441023,0
0.5245275631143602,-0.5060877183363316,-1.473887948041959,0
0.5411541739121273,-0.5773983854643883,-0.23993667125803605,0
0.49181910046401356,-0.5417144056393802,0.6131231363365798,0
0.49198681194361726,-0.5174747330238912,0.5198417309776412,0
0.48093683837766343,-0.44444080100646766,0.35145507618731386,0
0.48102668052662245,-0.5777705990394217,-1.3077531969011476,0
0.5434732313907346,-0.5020241625244537,-0.2831250656795347,0
0.5657300645697079,-0.551305969762956,-0.5856577998413593,0
0.4810964929296606,-0.476546508738748,-0.663535198304047,0
0.47546328605543886,-0.5642059758754046,0.7293494040178566,0
0.5322455743406009,-0.5190550698960464,0.16333994554129863,0
0.44829415508962633,-0.5188725261896361,1.377950952722521,0
0.5054292293626854,-0.40758546052816447,-0.7871927421571577,0
0.5232113766689723,-0.5078202331133241,0.5658178468280931,0
0.4997115456136497,-0.5224479244163663,-0.8676167643217026,0
0.6226414695619559,-0.5030938023889686,-2.016660690233245,0
0.4740559756838666,-0.4728784109150401,-0.5000084331847482,0
0.5544178480994103,-0.4599040690862417,-0.1523386358242358,0
0.4811113622889583,-0.5401920402811079,-0.6999665423133247,0
0.441074277013375,-0.4518241483386766,1.5907007871260619,0
0.4497544772108907,-0.5472673190274585,-1.768511857086917,0
0.46144583077071305,-0.6242534720513316,-1.1422789566319196,0
0.551876615992021,-0.5138269011785785,0.8545842348534083,0
0.4804412374463182,-0.42957330812027505,0.19921798301385701,0
0.48471990831426076,-0.3979030389851568,-0.3244718562854392,0
0.45115106601095456,-0.4919235999215956,-0.03883503855807973,0
0.5426529821266503,-0.5368653569799124,0.8047169314794976,0
0.5341099388229716,-0.5267074916774028,0.16324400572267767,0
0.4667699217258265,-0.4061676770463733,-0.7041395622801669,0
0.4818770222532514,-0.542633520878535,-0.3461212751731734,0
0.4997649589321238,-0.46928843458621256,-0.6104866460656994,0
0.4925690416531366,-0.5566595746565617,-0.8274022267661552,0
0.6102323023310381,-0.45835027233220815,-0.7814240416773149,0
0.44650411033886833,-0.5390233132239863,-0.02169085951373511,0
0.5013891115343676,-0.5297744240372343,-1.2865744667376442,0
0.5568951402099378,-0.48193258194819616,-0.3745680195679353,0
0.49117355168735655,-0.5211812183650267,-2.9360454460171126,0
0.504626473083705,-0.5428217763878307,-1.0026842990328195,0
0.47438950378438505,-0.4707079314115481,-1.170530808407683,0
0.4426287416130351,-0.47440591699310486,0.7543689046395509,0
0.4616426516882311,-0.4775040929082816,-0.2916324304147521,0
0.5120516870621424,-0.5504384112026214,0.8328944493608352,0
-0.45186964183534006,-0.4745170705749527,0.5583399616951433,0
-0.6508910062449094,-0.4895748100373224,-0.025445316692543535,0
-0.5058818202738533,-0.5252231195988408,0.0553649749135539,0
-0.4835153037948666,-0.510551526421625,-0.46332413970987085,0
-0.45080984756242914,-0.544214684290765,1.0301551978238768,0
-0.492927501450779,-0.5321722258112971,-0.28998189606931385,0
-0.5367997441124879,-0.47299741926362243,0.3479017619704715,0
-0.5222718470061273,-0.5440887319621689,0.30171609350107054,0
-0.46170457572632273,-0.5045534539752753,0.41835250088922316,0
-0.5150410860219897,-0.4972972317596229,-0.2912829113936885,0
-0.4882383142810008,-0.560390900521429,0.6441905231896892,0
-0.5091972992641326,-0.4856556772940246,-0.340310127466209,0
-0.48718555242503586,-0.5429025121651568,1.189154412488462,0
-0.5681417835054919,-0.5415695525911675,0.23566606953963426,0
-0.4414863085926169,-0.48887494792767877,-0.24790845527908614,0
-0.5570036057297306,-0.5076510665772053,-0.019877011042093756,0
-0.43237725418642414,-0.4751149911357687,-1.5290928749284465,0
-0.41892883619027227,-0.5158003950199517,-0.8794597147043167,0
-0.4410070939165236,-0.5019902304118787,-0.3674025993780988,0
-0.49124856044259074,-0.46620444878497136,0.9933362044496503,0
-0.5550080960021097,-0.42006074118913084,0.9468615879956256,0
-0.5151680424805261,-0.5327463940608567,-0.9690124307582063,0
-0.4950648624969527,-0.5259206517675851,-0.7648739652865205,0
-0.46754982380233456,-0.48541730624694707,-0.3945712584237112,0
-0.4706300961525851,-0.44530485494777317,-1.0944963126296459,0
-0.5241316753656899,-0.4622951263912049,0.7189405658150543,0
-0.4909320457424803,-0.4535031524976617,-1.0882117291190974,0
-0.5591655133508442,-0.5346602942910759,0.12254409553604008,0
-0.5318434710038041,-0.5194887262569876,-0.9750001191003014,0
-0.5248171657837961,-0.5401914887597198,0.36746620574561295,0
-0.4682043572806712,-0.5192178375807285,-0.2072657954706782,0
-0.5232413029004767,-0.47874995137455245,0.08905603873921995,0
-0.4362337239864714,-0.5438188814655014,0.36250249919104766,0
-0.48224034401413324,-0.5144176068396359,0.5835341273827435,0
-0.5575409059596176,-0.41524787877082714,-1.3420444532864415,0
-0.4632077095774005,-0.544844907157569,1.1508830312317526,0
-0.5153909610643601,-0.49366308371351153,0.05334375570673462,0
-0.4559706361990082,-0.512861898005717,-2.9671837099839435,0
-0.5304023516025773,-0.49265150707644206,-0.4404682048702619,0
-0.4692071659471681,-0.45938692016102123,-0.14777180989980965,0
-0.5595858157753004,-0.4446333955997641,1.0830535001068178,0
-0.511967645370681,-0.4156684635442899,-0.3488754600926644,0
-0.545484788816735,-0.5062349373500402,1.0778337155057705,0
-0.5374981377017006,-0.42195099689026205,-0.8965262145720566,0
-0.46182310894475037,-0.47822150503187294,-0.15405705958282354,0
-0.4567786808512897,-0.5599919515547278,1.3575717869331891,0
-0.5025473611588096,-0.5216974099945405,0.7491740480400813,0
-0.45760403945603023,-0.4692081827750553,1.9995038210449867,0
-0.4567709569579961,-0.44865973470318377,-0.5398639371765148,0
-0.4957390489175188,-0.47748069670697907,-0.017742236703293637,0
-0.48793459067307055,-0.48295580935461724,0.8442439176815353,0
-0.504064355630801,-0.5139919686156752,-0.8283156502165506,0
-0.5356692930456909,-0.4531019509061471,-0.08452148800245243,0
-0.4685222247563783,-0.5518945538537101,-1.9381681078391828,0
-0.5419636492399985,-0.4541349212996198,1.0680774398324595,0
-0.4867184556859166,-0.5320868060063983,-0.1308026415658544,0
-0.5119104191919573,-0.5137989338438127,-2.506069837315632,0
-0.5343170554384878,-0.5076043550272894,1.5164277898120941,0
-0.4935702776347302,-0.4439644685494877,-0.39370690875944603,0
-0.5101075432499124,-0.6559768692021736,0.463330339207019,0
-0.47811617354642666,-0.429449637217625,-0.48676121079282914,0
-0.49623383375211816,-0.5282211181888433,-1.1762570649202813,0
-0.5285243186694784,-0.5137999409634315,1.3554380286698136,0
-0.4999115358970649,-0.531621792386715,0.14187782824173303,0
-0.49129714577759864,-0.5270492822389984,1.1432336266295944,0
-0.575533955639066,-0.5085417851233195,0.6650660656292455,0
-0.5535373007790741,-0.48554985005426493,1.2928930501938052,0
-0.4818531494297213,-0.5676063977190771,-0.7281950274352488,0
-0.4507078638998295,-0.48806659019738824,-0.009858938489975367,0
-0.4823519762113804,-0.47115804199976496,-0.7084652365979932,0
-0.5116160032029182,-0.49428345401332724,-0.5439577217873256,0
-0.5053380623414901,-0.4480851295527203,-0.9678198646920557,0
-0.42293349163459437,-0.42482622490472055,-1.7134394379643105,0
-0.5056409066045209,-0.4862923372141728,-0.7608710875064288,0
-0.5296432201473892,-0.5094966278693819,0.7391780871115503,0
-0.5204533535578838,-0.4269322475351953,0.28997400233853204,0
-0.5041030113633329,-0.44202961259474166,0.6262811950603524,0
-0.485228528972497,-0.513245615310781,1.8139856138927497,0
-0.46752713641040056,-0.5081364534377885,-1.5771991506827037,0
-0.4850819383295231,-0.5457496036840636,-1.7159459517583207,0
-0.5111660602187106,-0.4887411558963751,1.2824812336831644,0
-0.48870192698859005,-0.46775921891316996,-1.2258827052231547,0
-0.5009012870987023,-0.4950315472278198,0.8622461846199109,0
-0.4953575730627593,-0.46783684167520506,-0.504199247777134,0
-0.48568180375147374,-0.4834053439498231,-1.249775724586651,0
-0.4929784548572943,-0.5128145010780563,-1.9040879486160345,0
-0.4616637327943441,-0.514474347212172,-0.8523900581258608,0
-0.5150926697477526,-0.49447198787406715,1.50790948434714,0
-0.5066373281202481,-0.4811037001216596,1.373579376897762,0
-0.4786579787490483,-0.45725743370324834,-0.47650985895095554,0
-0.4691580269410409,-0.5023190400027877,1.0744112374891797,0
-0.5401423828796856,-0.5311823101297097,1.2687315727053823,0
-0.5078433589027748,-0.5143584258681788,0.0775724193502392,0
-0.5275798982941144,-0.4467223452587776,-1.249162651675905,0
-0.5060239199344162,-0.4861218885719055,-0.10444706906656219,0
-0.5320915018147152,-0.5347355678701008,0.4253944258208237,0
-0.5412192180066681,-0.4741502917713984,-1.524148363645292,0
-0.5221993238686674,-0.49854775910521015,-1.2521519434446158,0
-0.4739195654589363,-0.5007415525323801,-1.0360736815895426,0
-0.5607555291900158,-0.5626235748549057,0.05103394513032868,0
-1.1568301070665343,0.4454048159707019,0.4907509625803116,0
2.277500524853034,0.5111016144493383,0.530516753340024,0
0.21271834626863834,0.5313192866443435,0.44627645398140187,0
-0.43051197019258486,0.5104540338244016,0.49928332735780107,0
-0.19199322011209138,0.4733649568102825,0.4896646758918319,0
-0.7741978238913314,0.40312667940560876,0.4522196623317765,0
0.47565293887443977,0.562283118226865,0.5725432068529475,0
0.09675174368870822,0.5357353449377654,0.536319116428429,0
-0.6922591838680748,0.43208240678157583,0.5012354927741925,0
-1.7622009972405384,0.48720281548180694,0.5243246834715747,0
-1.4200694881000024,0.5012918153572655,0.5496007246123626,0
0.36151247402096365,0.5208928680299871,0.5362696165526698,0
1.73296307213118,0.5060569232689275,0.549180034457325,0
-0.06416921633742403,0.47815324738266063,0.5125928387847026,0
-0.605812847991671,0.47707483136933737,0.47569037478231013,0
-2.2954241955331667,0.5042199791064239,0.4494465856561813,0
-0.1072691206682774,0.5579987512193931,0.4791599870757084,0
-0.5420091584474772,0.5545563753800719,0.521852230618572,0
0.9765270973526429,0.4857883506405203,0.5299233285148371,0
-0.6861685891568023,0.47295993097512407,0.5238497711282026,0
-0.5983731712727243,0.5306847417297581,0.5956673814171719,0
-1.6861525369472856,0.4699118249551502,0.544805847273707,0
-0.14507816949322366,0.546443593991703,0.4595974290746837,0
0.3313441778079705,0.4939777472870862,0.5056148289149337,0
0.33111601905536314,0.45119974549376174,0.4570345005856282,0
1.3992440068954228,0.5117285484632382,0.5042538533181051,0
-0.044074722613553316,0.5142616999482447,0.4537625304237821,0
-0.9990273318953995,0.5521803298882573,0.5060510088738865,0
0.8503008736540341,0.47577343972314906,0.5550690152143722,0
0.345278405319519,0.5192498327700035,0.5219491735086312,0
-0.7970092393721301,0.42537116546399756,0.4570078933165959,0
1.6305228573863613,0.5520273588128195,0.4861231452808812,0
-0.30167632703614505,0.5414642350894341,0.49326360508985656,0
-1.2992598701307787,0.5506217237038464,0.5190871431165572,0
-2.516339715003551,0.4874723957788049,0.5057468081313736,0
0.4812468270587883,0.5060860475724654,0.474570328110255,0
-0.11575904402998716,0.511792012717744,0.48927983657543933,0
-0.37190071970620736,0.5500833575465927,0.46213569258922993,0
-0.3494634711099121,0.41874923947803644,0.5216387985380565,0
0.8282644598468853,0.5219394733038634,0.5367068994984492,0
0.4407067447635609,0.5137006156381365,0.5189578826795206,0
-0.26730843195327686,0.5475331145038561,0.48605711739943375,0
-1.4623519251551929,0.5339913445447381,0.5740281111980593,0
-0.9601511192906311,0.49593475481628574,0.47258231957127894,0
-0.3805832501275168,0.5018437188711863,0.45032766188875323,0
-0.2776536712672873,0.4413613045447045,0.4772708944823409,0
-1.1860696539864874,0.4576375720215942,0.431203572773672,0
1.2193545887326338,0.5203623633895821,0.4233014382617402,0
-0.5968275940478756,0.47318245600387704,0.4723622348732561,0
-1.4468835125564838,0.5301754288547382,0.48416544857968,0
0.4681489094895136,0.5210702306066571,0.5550178124668355,0
-1.8148722777431434,0.5695440844569982,0.5507526109556492,0
0.5730659923355066,0.5953436891693646,0.5081991439170892,0
0.8214789160702182,0.4704634407492816,0.5453742963180731,0
0.16782596972241448,0.4819519942057581,0.584677567932635,0
-0.3047996645408318,0.5003544531043407,0.49210880170695487,0
-0.7556709132364813,0.5212508960212171,0.5295363841493093,0
0.3543725277387253,0.40557686954220257,0.5403198801369234,0
-0.3502383498230938,0.45134706352442777,0.524131238362039,0
0.5628494203738629,0.4582770519087465,0.5988974271533026,0
-1.2096265493756504,0.43067989182462174,0.4538331429480673,0
1.4207998428900637,0.49296573097185936,0.4851177324860723,0
-0.06215772113332739,0.4761354436833478,0.4723894634669172,0
-0.6412154938054386,0.5283182209386968,0.5408182354268662,0
-1.0550925619827771,0.5095691188695356,0.5315282896499635,0
-1.0817519495061156,0.4798973363193122,0.45847743350756837,0
-1.2910285430172368,0.5040745147516,0.470554705146795,0
0.631129089144547,0.49882312309538784,0.5165050942081998,0
-0.29228291261987144,0.4746001046964391,0.49637307459572877,0
-0.004996130276595701,0.4717657802193352,0.5170638182044066,0
0.7465948559764687,0.506323308213237,0.5685396355400624,0
-0.6323390096507158,0.5208238567280441,0.4836506079788376,0
0.23462950367525942,0.46680202641671664,0.5446049350945906,0
0.17602090575725726,0.5476897799829267,0.4493561769270497,0
-0.4935152092007745,0.46429736798887716,0.47872232538834,0
-0.6926096971858243,0.4951783626285083,0.4993101142508863,0
-0.04098486469656254,0.4777790450595269,0.5074970071155467,0
0.8756154955309015,0.46390897736044306,0.5000355450000769,0
-0.07407088917588163,0.5187341853689506,0.49744565660904944,0
-0.015664803595005782,0.4603561687108747,0.5008681535623857,0
-0.9218844892991094,0.5206281699265631,0.49587124262853916,0
0.03985841761466474,0.4643523853163882,0.5321503031976675,0
0.6923139089321741,0.5344609571619923,0.589095443236527,0
-0.05251938229307366,0.5481361134323123,0.4950468877430431,0
0.3940872958402979,0.5146134971045174,0.510583670534339,0
0.658256178520381,0.48784254478643013,0.5016372912632591,0
0.5353096473418112,0.5699141560015396,0.4663057332407035,0
-1.8061326203829131,0.48063658035409207,0.5035971373192315,0
0.17497709320369015,0.5036887114314693,0.5473116049071514,0
0.9760497927838799,0.49802928380194816,0.4812181150899125,0
-0.34600888138250585,0.4857478338806961,0.4909760210468745,0
-1.5726505615429949,0.4815583702542951,0.48300479914816136,0
-0.18888038569796042,0.48982799950319506,0.5268802856651015,0
-0.5319433559629919,0.4824568919427647,0.5216775501867216,0
-0.23531484674423206,0.508658189073827,0.5267734279342442,0
0.4219694947780549,0.5100064979193727,0.4921423376929672,0
0.6818941030932071,0.5070219976506,0.47980588995753004,0
-0.1508091869990102,0.45127482490709875,0.4615377610341235,0
-1.8829080367785338,0.47280274473572353,0.5534218168652354,0
-0.5564888399932533,0.531501632684108,0.4998620058310879,0
-0.700548823091534,0.5535311806051163,-0.4767117660570743,0
-1.7518005652801107,0.5416560879274676,-0.54299165980893,0
-0.1779139465826313,0.5267245368673558,-0.5119941264239672,0
1.1189440556172074,0.5304505504205265,-0.563075024419479,0
-0.4724341564337806,0.5112829493288545,-0.5229999472506017,0
-0.21627650618113814,0.531991396455558,-0.48732874773266177,0
-0.9206190351548597,0.5069842547741454,-0.5244907854043949,0
-1.2151923592287868,0.4547977659999174,-0.4885217785159633,0
-0.02811370599356217,0.500217272342337,-0.5458483619148966,0
-0.18392954998757557,0.45851329569003635,-0.5370557533426652,0
-0.165126756790438,0.4446643819471801,-0.47322930934531554,0
2.486882851272909,0.5183529299636295,-0.5417161255598202,0
-0.27118551415148473,0.43778248225671046,-0.5151046552516888,0
0.5073139355693843,0.5235753906474309,-0.5412697101543373,0
0.29914565348662464,0.5462563210002178,-0.4297963365960361,0
-0.7007948826987104,0.4654319995168287,-0.49782336523518417,0
-2.9280901725683814,0.47875863995396456,-0.5108389987724847,0
-0.4593419875378874,0.43664507087349913,-0.5098220443091861,0
-0.7766086200556818,0.5302993223383249,-0.5367389926969105,0
-0.28234512976124115,0.4906820829952639,-0.4772971431470192,0
-2.5459046003660784,0.48637500256815996,-0.46961539402905295,0
-0.3616882372265676,0.43892252134448234,-0.4869360730966417,0
0.33668690624350883,0.4891804243217069,-0.5463918282916692,0
-0.7406751455270828,0.4874497396425429,-0.5350213142303315,0
-1.9201783483529482,0.4692285280427535,-0.502469757378871,0
-0.5070600672915547,0.49697708643446387,-0.49665368084148304,0
0.8965755003643204,0.5881529649380622,-0.4707288463949438,0
-1.4043285465488287,0.3937222021079079,-0.5037784867467725,0
0.07138843525796344,0.45352506776661694,-0.489118714511917,0
-0.7669395878687968,0.5161067893112655,-0.5130207269188731,0
0.39746259072463846,0.4302721922357827,-0.517538675003972,0
-0.1485960064725456,0.44300501099600276,-0.4247064696709308,0
-0.5407734120955239,0.5555988691603351,-0.5265736836448018,0
-0.22997115548100328,0.5473560764684008,-0.48784692619888825,0
0.19205435028986062,0.5106377379270487,-0.5546463150496347,0
-0.3895534736381311,0.46174217384473215,-0.4921034539074274,0
-0.5439981304035021,0.49823763514001007,-0.5030917025304377,0
-0.03637038490501321,0.4986101151235388,-0.5260951242553439,0
-1.0540027955565343,0.473425747625855,-0.45713846637425404,0
0.3741618064648528,0.5234782144236806,-0.4448012833478261,0
-1.1794309331731632,0.5203980968592729,-0.5430029642081098,0
-0.3343325988668879,0.5193695937108262,-0.435426189314543,0
-0.7821649424751884,0.4962081498562463,-0.4537505278418033,0
-1.4898081193653723,0.5144845165882624,-0.5123311260159154,0
-0.881694971470056,0.5058652329229444,-0.47620296552612706,0
-0.91209976232621,0.5151995912738696,-0.4930652004151961,0
-1.2418133060027143,0.562136514677605,-0.4564038932071942,0
-0.8599267478891178,0.47653476469076617,-0.46916879065009726,0
-0.49544904738287204,0.42641125579109523,-0.4580447155039709,0
0.008781422965773035,0.5762810476385967,-0.48570131507324055,0
0.19099248938301286,0.6149800192557653,-0.5068746938380573,0
-0.9518157648768794,0.5091679191827699,-0.45456980387915735,0
-1.1651201441864287,0.46366939562778176,-0.48200891606494284,0
-3.197345391683628,0.45629285368070777,-0.46818063670231724,0
-0.5867399161530961,0.4349406746923578,-0.42297733366282775,0
-1.4105351572732683,0.47906537812160377,-0.5149092599716278,0
0.08314439397770138,0.48521979192384207,-0.5032386031426844,0
0.05749457907590979,0.4965329428493431,-0.4962690463722703,0
-2.3789256878163596,0.5176425879107025,-0.5561782679192414,0
-2.1666455112290612,0.5552539162596483,-0.5514206111679643,0
0.17986910595420905,0.4690975405174049,-0.5271386486348179,0
0.4836547685821585,0.45807100163233966,-0.48509302898340073,0
0.3806924762430092,0.5465779165574459,-0.513448528819882,0
1.0465822533642106,0.5688277882696826,-0.4365327088231814,0
0.5860769567913948,0.5179666428771602,-0.3860218015709624,0
2.2321759587975563,0.46933530863564904,-0.46305563854886844,0
0.601959232063568,0.5028906984599328,-0.493867508075114,0
0.4877851124623137,0.537494339093184,-0.49124920553393464,0
0.339793714559767,0.5556856125657056,-0.48729119026290524,0
0.5450224817130815,0.5396092038631773,-0.43466950335766313,0
1.2270409292003972,0.5150885981130757,-0.49168738184095745,0
-1.2236035778514136,0.5116825017641421,-0.5414867903978329,0
-1.0240394415157577,0.526020357098762,-0.5040230873430301,0
0.4722094960293684,0.47492147530488005,-0.4519518397009535,0
0.14377218005623457,0.5475091330813447,-0.47306238039272697,0
0.16524903859866213,0.48085890355557115,-0.49873969689404546,0
0.8280104854866206,0.5279063093661583,-0.5478233861001497,0
1.0256820527459456,0.49144368234099567,-0.4673894511598449,0
-0.6974882614105615,0.525514211506263,-0.5318636753130481,0
0.12935683165923514,0.48807880773121404,-0.5114229026743763,0
-0.5665872435909065,0.49385683614997966,-0.5696253876066997,0
0.8765996934014191,0.5384674634835355,-0.5177109549138793,0
-1.3797546259079334,0.47413162920718893,-0.462095426812085,0
0.6255207733817739,0.487985857563249,-0.46410900879437667,0
-1.0414807563325195,0.4754945467563603,-0.4810157101326604,0
-0.09591332970445857,0.47643097203379187,-0.6004851092204561,0
0.6712163346120159,0.5129488725358925,-0.5697168931420569,0
0.6003256861085275,0.4994254496496565,-0.4888466089050274,0
0.9451932065760001,0.4704045278020269,-0.47145743143043467,0
0.6838541519834499,0.5304606295704071,-0.4345617688677531,0
0.6587348427546967,0.4775376915864325,-0.4280646231944581,0
-1.1073125456047812,0.48149105622567945,-0.5385787884401757,0
-0.1027607995418483,0.5432887713284142,-0.4480885617263766,0
0.46351741580390327,0.4756243574567501,-0.5221448239260214,0
-0.6031961366575651,0.5381136272929475,-0.5362615730244127,0
0.8645262754121827,0.4986962371350298,-0.4931179571019228,0
1.5117183839006723,0.4809866394377071,-0.43353085615410425,0
-1.4094526593736707,0.46700945224253987,-0.5631356561240655,0
-0.7467818840498868,0.5233152838884689,-0.47049083740145475,0
0.3067753034739905,0.510683678466614,-0.5469330790682989,0
